{
"type": "FeatureCollection",
"features": [
{ "type": "Feature", "id": 0, "properties": { "COMID": 10037053, "PERMANENT_": "{C158CA61-05F8-4EAF-E043-0100007F1B58}", "EVENTDATE": "2012\/05\/31", "REACHCODE": "14010003000440", "REACHSMDAT": "1990\/01\/01", "REACHRESOL": 3, "FEATURECOM": 0.000000, "FEATURE_PE": "1319042", "FEATURECLA": 3.000000, "SOURCE_ORI": "CO", "SOURCE_DAT": "FAC no PIPE", "SOURCE_FEA": "COX622027", "FEATUREDET": "http:\/\/www.epa-echo.gov\/cgi-bin\/get1cReport.cgi?tool=echoamp;IDNumber=COX622027", "MEASURE": 17.901500, "OFFSET": 0.000000, "EVENTTYPE": "PCS", "GEOGSTATE": "CO", "CYCLE_YEAR": "", "START_DATE": "2012\/05\/30", "END_DATE": "1904\/02\/29", "WBD_HUC12": "140100030306", "WBD_HUC12_": 1.000000, "NAVIGABLE": "Y", "VERTICES": 1.000000, "AREA": 0.000000, "LEN": 0.000000 }, "geometry": { "type": "MultiPoint", "coordinates": [ [ -106.684473, 39.694618 ] ] } }
,
{ "type": "Feature", "id": 1, "properties": { "COMID": 10036946, "PERMANENT_": "{C158CA61-0522-4EAF-E043-0100007F1B58}", "EVENTDATE": "2012\/05\/31", "REACHCODE": "14010003000167", "REACHSMDAT": "1990\/01\/01", "REACHRESOL": 3, "FEATURECOM": 0.000000, "FEATURE_PE": "1319236", "FEATURECLA": 3.000000, "SOURCE_ORI": "CO", "SOURCE_DAT": "PIPE", "SOURCE_FEA": "COG603127001", "FEATUREDET": "http:\/\/www.epa-echo.gov\/cgi-bin\/get1cReport.cgi?tool=echoamp;IDNumber=COG603127", "MEASURE": 23.435700, "OFFSET": 0.000000, "EVENTTYPE": "PCS", "GEOGSTATE": "CO", "CYCLE_YEAR": "", "START_DATE": "2012\/05\/30", "END_DATE": "1904\/02\/29", "WBD_HUC12": "140100030103", "WBD_HUC12_": 1.000000, "NAVIGABLE": "Y", "VERTICES": 1.000000, "AREA": 0.000000, "LEN": 0.000000 }, "geometry": { "type": "MultiPoint", "coordinates": [ [ -106.392999, 39.641181 ] ] } }
,
{ "type": "Feature", "id": 2, "properties": { "COMID": 10036974, "PERMANENT_": "{C158CA61-055A-4EAF-E043-0100007F1B58}", "EVENTDATE": "2012\/05\/31", "REACHCODE": "14010003000114", "REACHSMDAT": "1990\/01\/01", "REACHRESOL": 3, "FEATURECOM": 0.000000, "FEATURE_PE": "1319278", "FEATURECLA": 3.000000, "SOURCE_ORI": "CO", "SOURCE_DAT": "PIPE", "SOURCE_FEA": "COG641058001", "FEATUREDET": "http:\/\/www.epa-echo.gov\/cgi-bin\/get1cReport.cgi?tool=echoamp;IDNumber=COG641058", "MEASURE": 33.534800, "OFFSET": 0.000000, "EVENTTYPE": "PCS", "GEOGSTATE": "CO", "CYCLE_YEAR": "", "START_DATE": "2012\/05\/30", "END_DATE": "1904\/02\/29", "WBD_HUC12": "140100030302", "WBD_HUC12_": 1.000000, "NAVIGABLE": "Y", "VERTICES": 1.000000, "AREA": 0.000000, "LEN": 0.000000 }, "geometry": { "type": "MultiPoint", "coordinates": [ [ -106.536888, 39.636533 ] ] } }
,
{ "type": "Feature", "id": 3, "properties": { "COMID": 10036976, "PERMANENT_": "{C158CA61-055E-4EAF-E043-0100007F1B58}", "EVENTDATE": "2012\/05\/31", "REACHCODE": "14010003000114", "REACHSMDAT": "1990\/01\/01", "REACHRESOL": 3, "FEATURECOM": 0.000000, "FEATURE_PE": "1319278", "FEATURECLA": 3.000000, "SOURCE_ORI": "CO", "SOURCE_DAT": "PIPE", "SOURCE_FEA": "COG641058003", "FEATUREDET": "http:\/\/www.epa-echo.gov\/cgi-bin\/get1cReport.cgi?tool=echoamp;IDNumber=COG641058", "MEASURE": 33.534800, "OFFSET": 0.000000, "EVENTTYPE": "PCS", "GEOGSTATE": "CO", "CYCLE_YEAR": "", "START_DATE": "2012\/05\/30", "END_DATE": "1904\/02\/29", "WBD_HUC12": "140100030302", "WBD_HUC12_": 1.000000, "NAVIGABLE": "Y", "VERTICES": 1.000000, "AREA": 0.000000, "LEN": 0.000000 }, "geometry": { "type": "MultiPoint", "coordinates": [ [ -106.536888, 39.636533 ] ] } }
,
{ "type": "Feature", "id": 4, "properties": { "COMID": 10036977, "PERMANENT_": "{C158CA61-0560-4EAF-E043-0100007F1B58}", "EVENTDATE": "2012\/05\/31", "REACHCODE": "14010003000114", "REACHSMDAT": "1990\/01\/01", "REACHRESOL": 3, "FEATURECOM": 0.000000, "FEATURE_PE": "1319278", "FEATURECLA": 3.000000, "SOURCE_ORI": "CO", "SOURCE_DAT": "PIPE", "SOURCE_FEA": "COG641058004", "FEATUREDET": "http:\/\/www.epa-echo.gov\/cgi-bin\/get1cReport.cgi?tool=echoamp;IDNumber=COG641058", "MEASURE": 33.534800, "OFFSET": 0.000000, "EVENTTYPE": "PCS", "GEOGSTATE": "CO", "CYCLE_YEAR": "", "START_DATE": "2012\/05\/30", "END_DATE": "1904\/02\/29", "WBD_HUC12": "140100030302", "WBD_HUC12_": 1.000000, "NAVIGABLE": "Y", "VERTICES": 1.000000, "AREA": 0.000000, "LEN": 0.000000 }, "geometry": { "type": "MultiPoint", "coordinates": [ [ -106.536888, 39.636533 ] ] } }
,
{ "type": "Feature", "id": 5, "properties": { "COMID": 10036981, "PERMANENT_": "{C158CA61-0568-4EAF-E043-0100007F1B58}", "EVENTDATE": "2012\/05\/31", "REACHCODE": "14010003000440", "REACHSMDAT": "1990\/01\/01", "REACHRESOL": 3, "FEATURECOM": 0.000000, "FEATURE_PE": "1319042", "FEATURECLA": 3.000000, "SOURCE_ORI": "CO", "SOURCE_DAT": "PIPE", "SOURCE_FEA": "COG641135001", "FEATUREDET": "http:\/\/www.epa-echo.gov\/cgi-bin\/get1cReport.cgi?tool=echoamp;IDNumber=COG641135", "MEASURE": 17.901500, "OFFSET": 0.000000, "EVENTTYPE": "PCS", "GEOGSTATE": "CO", "CYCLE_YEAR": "", "START_DATE": "2012\/05\/30", "END_DATE": "1904\/02\/29", "WBD_HUC12": "140100030306", "WBD_HUC12_": 1.000000, "NAVIGABLE": "Y", "VERTICES": 1.000000, "AREA": 0.000000, "LEN": 0.000000 }, "geometry": { "type": "MultiPoint", "coordinates": [ [ -106.684473, 39.694618 ] ] } }
,
{ "type": "Feature", "id": 6, "properties": { "COMID": 10036989, "PERMANENT_": "{C158CA61-0578-4EAF-E043-0100007F1B58}", "EVENTDATE": "2012\/05\/31", "REACHCODE": "14010003000114", "REACHSMDAT": "1990\/01\/01", "REACHRESOL": 3, "FEATURECOM": 0.000000, "FEATURE_PE": "1319278", "FEATURECLA": 3.000000, "SOURCE_ORI": "CO", "SOURCE_DAT": "FAC no PIPE", "SOURCE_FEA": "COG650044", "FEATUREDET": "http:\/\/www.epa-echo.gov\/cgi-bin\/get1cReport.cgi?tool=echoamp;IDNumber=COG650044", "MEASURE": 41.164300, "OFFSET": 0.000000, "EVENTTYPE": "PCS", "GEOGSTATE": "CO", "CYCLE_YEAR": "", "START_DATE": "2012\/05\/30", "END_DATE": "1904\/02\/29", "WBD_HUC12": "140100030302", "WBD_HUC12_": 1.000000, "NAVIGABLE": "Y", "VERTICES": 1.000000, "AREA": 0.000000, "LEN": 0.000000 }, "geometry": { "type": "MultiPoint", "coordinates": [ [ -106.535929, 39.635971 ] ] } }
,
{ "type": "Feature", "id": 7, "properties": { "COMID": 10062777, "PERMANENT_": "{C158CA61-CED1-4EAF-E043-0100007F1B58}", "EVENTDATE": "2012\/05\/31", "REACHCODE": "14010003000122", "REACHSMDAT": "1990\/01\/01", "REACHRESOL": 3, "FEATURECOM": 0.000000, "FEATURE_PE": "1319350", "FEATURECLA": 3.000000, "SOURCE_ORI": "CO", "SOURCE_DAT": "PIPE", "SOURCE_FEA": "COG073669001", "FEATUREDET": "http:\/\/www.epa-echo.gov\/cgi-bin\/get1cReport.cgi?tool=echoamp;IDNumber=COG073669", "MEASURE": 34.007600, "OFFSET": 0.000000, "EVENTTYPE": "PCS", "GEOGSTATE": "CO", "CYCLE_YEAR": "", "START_DATE": "2012\/05\/30", "END_DATE": "1904\/02\/29", "WBD_HUC12": "140100030301", "WBD_HUC12_": 1.000000, "NAVIGABLE": "Y", "VERTICES": 1.000000, "AREA": 0.000000, "LEN": 0.000000 }, "geometry": { "type": "MultiPoint", "coordinates": [ [ -106.484974, 39.623284 ] ] } }
,
{ "type": "Feature", "id": 8, "properties": { "COMID": 10062778, "PERMANENT_": "{C158CA61-CED3-4EAF-E043-0100007F1B58}", "EVENTDATE": "2012\/05\/31", "REACHCODE": "14010003000122", "REACHSMDAT": "1990\/01\/01", "REACHRESOL": 3, "FEATURECOM": 0.000000, "FEATURE_PE": "1319350", "FEATURECLA": 3.000000, "SOURCE_ORI": "CO", "SOURCE_DAT": "PIPE", "SOURCE_FEA": "COG073669G001", "FEATUREDET": "http:\/\/www.epa-echo.gov\/cgi-bin\/get1cReport.cgi?tool=echoamp;IDNumber=COG073669", "MEASURE": 34.007600, "OFFSET": 0.000000, "EVENTTYPE": "PCS", "GEOGSTATE": "CO", "CYCLE_YEAR": "", "START_DATE": "2012\/05\/30", "END_DATE": "1904\/02\/29", "WBD_HUC12": "140100030301", "WBD_HUC12_": 1.000000, "NAVIGABLE": "Y", "VERTICES": 1.000000, "AREA": 0.000000, "LEN": 0.000000 }, "geometry": { "type": "MultiPoint", "coordinates": [ [ -106.484974, 39.623284 ] ] } }
,
{ "type": "Feature", "id": 9, "properties": { "COMID": 10062779, "PERMANENT_": "{C158CA61-CED5-4EAF-E043-0100007F1B58}", "EVENTDATE": "2012\/05\/31", "REACHCODE": "14010003000122", "REACHSMDAT": "1990\/01\/01", "REACHRESOL": 3, "FEATURECOM": 0.000000, "FEATURE_PE": "1319350", "FEATURECLA": 3.000000, "SOURCE_ORI": "CO", "SOURCE_DAT": "PIPE", "SOURCE_FEA": "COG073669G002", "FEATUREDET": "http:\/\/www.epa-echo.gov\/cgi-bin\/get1cReport.cgi?tool=echoamp;IDNumber=COG073669", "MEASURE": 34.007600, "OFFSET": 0.000000, "EVENTTYPE": "PCS", "GEOGSTATE": "CO", "CYCLE_YEAR": "", "START_DATE": "2012\/05\/30", "END_DATE": "1904\/02\/29", "WBD_HUC12": "140100030301", "WBD_HUC12_": 1.000000, "NAVIGABLE": "Y", "VERTICES": 1.000000, "AREA": 0.000000, "LEN": 0.000000 }, "geometry": { "type": "MultiPoint", "coordinates": [ [ -106.484974, 39.623284 ] ] } }
,
{ "type": "Feature", "id": 10, "properties": { "COMID": 10062780, "PERMANENT_": "{C158CA61-CED7-4EAF-E043-0100007F1B58}", "EVENTDATE": "2012\/05\/31", "REACHCODE": "14010003000122", "REACHSMDAT": "1990\/01\/01", "REACHRESOL": 3, "FEATURECOM": 0.000000, "FEATURE_PE": "1319350", "FEATURECLA": 3.000000, "SOURCE_ORI": "CO", "SOURCE_DAT": "PIPE", "SOURCE_FEA": "COG073669G003", "FEATUREDET": "http:\/\/www.epa-echo.gov\/cgi-bin\/get1cReport.cgi?tool=echoamp;IDNumber=COG073669", "MEASURE": 34.007600, "OFFSET": 0.000000, "EVENTTYPE": "PCS", "GEOGSTATE": "CO", "CYCLE_YEAR": "", "START_DATE": "2012\/05\/30", "END_DATE": "1904\/02\/29", "WBD_HUC12": "140100030301", "WBD_HUC12_": 1.000000, "NAVIGABLE": "Y", "VERTICES": 1.000000, "AREA": 0.000000, "LEN": 0.000000 }, "geometry": { "type": "MultiPoint", "coordinates": [ [ -106.484974, 39.623284 ] ] } }
,
{ "type": "Feature", "id": 11, "properties": { "COMID": 10062781, "PERMANENT_": "{C158CA61-CED9-4EAF-E043-0100007F1B58}", "EVENTDATE": "2012\/05\/31", "REACHCODE": "14010003000122", "REACHSMDAT": "1990\/01\/01", "REACHRESOL": 3, "FEATURECOM": 0.000000, "FEATURE_PE": "1319350", "FEATURECLA": 3.000000, "SOURCE_ORI": "CO", "SOURCE_DAT": "PIPE", "SOURCE_FEA": "COG073669G004", "FEATUREDET": "http:\/\/www.epa-echo.gov\/cgi-bin\/get1cReport.cgi?tool=echoamp;IDNumber=COG073669", "MEASURE": 34.007600, "OFFSET": 0.000000, "EVENTTYPE": "PCS", "GEOGSTATE": "CO", "CYCLE_YEAR": "", "START_DATE": "2012\/05\/30", "END_DATE": "1904\/02\/29", "WBD_HUC12": "140100030301", "WBD_HUC12_": 1.000000, "NAVIGABLE": "Y", "VERTICES": 1.000000, "AREA": 0.000000, "LEN": 0.000000 }, "geometry": { "type": "MultiPoint", "coordinates": [ [ -106.484974, 39.623284 ] ] } }
,
{ "type": "Feature", "id": 12, "properties": { "COMID": 10062799, "PERMANENT_": "{C158CA61-CEFD-4EAF-E043-0100007F1B58}", "EVENTDATE": "2012\/05\/31", "REACHCODE": "14010003000315", "REACHSMDAT": "1990\/01\/01", "REACHRESOL": 3, "FEATURECOM": 0.000000, "FEATURE_PE": "1320972", "FEATURECLA": 3.000000, "SOURCE_ORI": "CO", "SOURCE_DAT": "PIPE", "SOURCE_FEA": "COG073849001", "FEATUREDET": "http:\/\/www.epa-echo.gov\/cgi-bin\/get1cReport.cgi?tool=echoamp;IDNumber=COG073849", "MEASURE": 22.727900, "OFFSET": 0.000000, "EVENTTYPE": "PCS", "GEOGSTATE": "CO", "CYCLE_YEAR": "", "START_DATE": "2012\/05\/30", "END_DATE": "1904\/02\/29", "WBD_HUC12": "140100030204", "WBD_HUC12_": 1.000000, "NAVIGABLE": "N", "VERTICES": 1.000000, "AREA": 0.000000, "LEN": 0.000000 }, "geometry": { "type": "MultiPoint", "coordinates": [ [ -106.467939, 39.385062 ] ] } }
,
{ "type": "Feature", "id": 13, "properties": { "COMID": 10062956, "PERMANENT_": "{C158CA61-D037-4EAF-E043-0100007F1B58}", "EVENTDATE": "2012\/05\/31", "REACHCODE": "14010003000047", "REACHSMDAT": "1990\/01\/01", "REACHRESOL": 3, "FEATURECOM": 0.000000, "FEATURE_PE": "1319254", "FEATURECLA": 3.000000, "SOURCE_ORI": "CO", "SOURCE_DAT": "FAC no PIPE", "SOURCE_FEA": "COR105753", "FEATUREDET": "http:\/\/www.epa-echo.gov\/cgi-bin\/get1cReport.cgi?tool=echoamp;IDNumber=COR105753", "MEASURE": 17.132200, "OFFSET": 0.000000, "EVENTTYPE": "PCS", "GEOGSTATE": "CO", "CYCLE_YEAR": "", "START_DATE": "2012\/05\/30", "END_DATE": "1904\/02\/29", "WBD_HUC12": "140100030405", "WBD_HUC12_": 1.000000, "NAVIGABLE": "Y", "VERTICES": 1.000000, "AREA": 0.000000, "LEN": 0.000000 }, "geometry": { "type": "MultiPoint", "coordinates": [ [ -106.825703, 39.639734 ] ] } }
,
{ "type": "Feature", "id": 14, "properties": { "COMID": 10062895, "PERMANENT_": "{C158CA61-CFBD-4EAF-E043-0100007F1B58}", "EVENTDATE": "2012\/05\/31", "REACHCODE": "14010003000719", "REACHSMDAT": "1990\/01\/01", "REACHRESOL": 3, "FEATURECOM": 0.000000, "FEATURE_PE": "1320260", "FEATURECLA": 3.000000, "SOURCE_ORI": "CO", "SOURCE_DAT": "PIPE", "SOURCE_FEA": "COG641031001", "FEATUREDET": "http:\/\/www.epa-echo.gov\/cgi-bin\/get1cReport.cgi?tool=echoamp;IDNumber=COG641031", "MEASURE": 8.441000, "OFFSET": 0.000000, "EVENTTYPE": "PCS", "GEOGSTATE": "CO", "CYCLE_YEAR": "", "START_DATE": "2012\/05\/30", "END_DATE": "1904\/02\/29", "WBD_HUC12": "140100030405", "WBD_HUC12_": 1.000000, "NAVIGABLE": "N", "VERTICES": 1.000000, "AREA": 0.000000, "LEN": 0.000000 }, "geometry": { "type": "MultiPoint", "coordinates": [ [ -106.765328, 39.622069 ] ] } }
,
{ "type": "Feature", "id": 15, "properties": { "COMID": 10088741, "PERMANENT_": "{C158CA62-9991-4EAF-E043-0100007F1B58}", "EVENTDATE": "2012\/05\/31", "REACHCODE": "14010003000167", "REACHSMDAT": "1990\/01\/01", "REACHRESOL": 3, "FEATURECOM": 0.000000, "FEATURE_PE": "1319236", "FEATURECLA": 3.000000, "SOURCE_ORI": "CO", "SOURCE_DAT": "FAC no PIPE", "SOURCE_FEA": "COG650043", "FEATUREDET": "http:\/\/www.epa-echo.gov\/cgi-bin\/get1cReport.cgi?tool=echoamp;IDNumber=COG650043", "MEASURE": 16.702800, "OFFSET": 0.000000, "EVENTTYPE": "PCS", "GEOGSTATE": "CO", "CYCLE_YEAR": "", "START_DATE": "2012\/05\/30", "END_DATE": "1904\/02\/29", "WBD_HUC12": "140100030103", "WBD_HUC12_": 1.000000, "NAVIGABLE": "Y", "VERTICES": 1.000000, "AREA": 0.000000, "LEN": 0.000000 }, "geometry": { "type": "MultiPoint", "coordinates": [ [ -106.393794, 39.641051 ] ] } }
,
{ "type": "Feature", "id": 16, "properties": { "COMID": 10088759, "PERMANENT_": "{C158CA62-99B5-4EAF-E043-0100007F1B58}", "EVENTDATE": "2012\/05\/31", "REACHCODE": "14010003000600", "REACHSMDAT": "1990\/01\/01", "REACHRESOL": 3, "FEATURECOM": 0.000000, "FEATURE_PE": "1320378", "FEATURECLA": 3.000000, "SOURCE_ORI": "CO", "SOURCE_DAT": "FAC no PIPE", "SOURCE_FEA": "COR03F048", "FEATUREDET": "http:\/\/www.epa-echo.gov\/cgi-bin\/get1cReport.cgi?tool=echoamp;IDNumber=COR03F048", "MEASURE": 1.222100, "OFFSET": 0.000000, "EVENTTYPE": "PCS", "GEOGSTATE": "CO", "CYCLE_YEAR": "", "START_DATE": "2012\/05\/30", "END_DATE": "1904\/02\/29", "WBD_HUC12": "140100030305", "WBD_HUC12_": 1.000000, "NAVIGABLE": "Y", "VERTICES": 1.000000, "AREA": 0.000000, "LEN": 0.000000 }, "geometry": { "type": "MultiPoint", "coordinates": [ [ -106.626600, 39.654451 ] ] } }
,
{ "type": "Feature", "id": 17, "properties": { "COMID": 10088705, "PERMANENT_": "{C158CA62-9949-4EAF-E043-0100007F1B58}", "EVENTDATE": "2012\/05\/31", "REACHCODE": "14010003000527", "REACHSMDAT": "1990\/01\/01", "REACHRESOL": 3, "FEATURECOM": 0.000000, "FEATURE_PE": "1319344", "FEATURECLA": 3.000000, "SOURCE_ORI": "CO", "SOURCE_DAT": "PIPE", "SOURCE_FEA": "COG603076001", "FEATUREDET": "http:\/\/www.epa-echo.gov\/cgi-bin\/get1cReport.cgi?tool=echoamp;IDNumber=COG603076", "MEASURE": 5.640700, "OFFSET": 0.000000, "EVENTTYPE": "PCS", "GEOGSTATE": "CO", "CYCLE_YEAR": "", "START_DATE": "2012\/05\/30", "END_DATE": "1904\/02\/29", "WBD_HUC12": "140100030102", "WBD_HUC12_": 1.000000, "NAVIGABLE": "Y", "VERTICES": 1.000000, "AREA": 0.000000, "LEN": 0.000000 }, "geometry": { "type": "MultiPoint", "coordinates": [ [ -106.371926, 39.639533 ] ] } }
,
{ "type": "Feature", "id": 18, "properties": { "COMID": 10088639, "PERMANENT_": "{C158CA62-98C5-4EAF-E043-0100007F1B58}", "EVENTDATE": "2012\/05\/31", "REACHCODE": "14010003000073", "REACHSMDAT": "1990\/01\/01", "REACHRESOL": 3, "FEATURECOM": 0.000000, "FEATURE_PE": "1319062", "FEATURECLA": 3.000000, "SOURCE_ORI": "CO", "SOURCE_DAT": "FAC no PIPE", "SOURCE_FEA": "COG500088", "FEATUREDET": "http:\/\/www.epa-echo.gov\/cgi-bin\/get1cReport.cgi?tool=echoamp;IDNumber=COG500088", "MEASURE": 7.185700, "OFFSET": 0.000000, "EVENTTYPE": "PCS", "GEOGSTATE": "CO", "CYCLE_YEAR": "", "START_DATE": "2012\/05\/30", "END_DATE": "1904\/02\/29", "WBD_HUC12": "140100030603", "WBD_HUC12_": 1.000000, "NAVIGABLE": "Y", "VERTICES": 1.000000, "AREA": 0.000000, "LEN": 0.000000 }, "geometry": { "type": "MultiPoint", "coordinates": [ [ -106.829348, 39.658101 ] ] } }
,
{ "type": "Feature", "id": 19, "properties": { "COMID": 10088540, "PERMANENT_": "{C158CA62-97FF-4EAF-E043-0100007F1B58}", "EVENTDATE": "2012\/05\/31", "REACHCODE": "14010003000154", "REACHSMDAT": "1990\/01\/01", "REACHRESOL": 3, "FEATURECOM": 0.000000, "FEATURE_PE": "1319950", "FEATURECLA": 3.000000, "SOURCE_ORI": "CO", "SOURCE_DAT": "PIPE", "SOURCE_FEA": "CO0021385001", "FEATUREDET": "http:\/\/www.epa-echo.gov\/cgi-bin\/get1cReport.cgi?tool=echoamp;IDNumber=CO0021385", "MEASURE": 2.312500, "OFFSET": 0.000000, "EVENTTYPE": "PCS", "GEOGSTATE": "CO", "CYCLE_YEAR": "", "START_DATE": "2012\/05\/30", "END_DATE": "1904\/02\/29", "WBD_HUC12": "140100030206", "WBD_HUC12_": 1.000000, "NAVIGABLE": "Y", "VERTICES": 1.000000, "AREA": 0.000000, "LEN": 0.000000 }, "geometry": { "type": "MultiPoint", "coordinates": [ [ -106.378367, 39.507512 ] ] } }
,
{ "type": "Feature", "id": 20, "properties": { "COMID": 10114643, "PERMANENT_": "{C158CA63-63C3-4EAF-E043-0100007F1B58}", "EVENTDATE": "2012\/05\/31", "REACHCODE": "14010003000120", "REACHSMDAT": "1990\/01\/01", "REACHRESOL": 3, "FEATURECOM": 0.000000, "FEATURE_PE": "1320262", "FEATURECLA": 3.000000, "SOURCE_ORI": "CO", "SOURCE_DAT": "FAC no PIPE", "SOURCE_FEA": "COG073674", "FEATUREDET": "http:\/\/www.epa-echo.gov\/cgi-bin\/get1cReport.cgi?tool=echoamp;IDNumber=COG073674", "MEASURE": 71.616400, "OFFSET": 0.000000, "EVENTTYPE": "PCS", "GEOGSTATE": "CO", "CYCLE_YEAR": "", "START_DATE": "2012\/05\/30", "END_DATE": "1904\/02\/29", "WBD_HUC12": "140100030301", "WBD_HUC12_": 1.000000, "NAVIGABLE": "Y", "VERTICES": 1.000000, "AREA": 0.000000, "LEN": 0.000000 }, "geometry": { "type": "MultiPoint", "coordinates": [ [ -106.501416, 39.624844 ] ] } }
,
{ "type": "Feature", "id": 21, "properties": { "COMID": 10114647, "PERMANENT_": "{C158CA63-63CB-4EAF-E043-0100007F1B58}", "EVENTDATE": "2012\/05\/31", "REACHCODE": "14010003000170", "REACHSMDAT": "1990\/01\/01", "REACHRESOL": 3, "FEATURECOM": 0.000000, "FEATURE_PE": "1319264", "FEATURECLA": 3.000000, "SOURCE_ORI": "CO", "SOURCE_DAT": "PIPE", "SOURCE_FEA": "COG073820001", "FEATUREDET": "http:\/\/www.epa-echo.gov\/cgi-bin\/get1cReport.cgi?tool=echoamp;IDNumber=COG073820", "MEASURE": 92.241000, "OFFSET": 0.000000, "EVENTTYPE": "PCS", "GEOGSTATE": "CO", "CYCLE_YEAR": "", "START_DATE": "2012\/05\/30", "END_DATE": "1904\/02\/29", "WBD_HUC12": "140100030102", "WBD_HUC12_": 1.000000, "NAVIGABLE": "Y", "VERTICES": 1.000000, "AREA": 0.000000, "LEN": 0.000000 }, "geometry": { "type": "MultiPoint", "coordinates": [ [ -106.326095, 39.645572 ] ] } }
,
{ "type": "Feature", "id": 22, "properties": { "COMID": 10114792, "PERMANENT_": "{C158CA63-64ED-4EAF-E043-0100007F1B58}", "EVENTDATE": "2012\/05\/31", "REACHCODE": "14010003000600", "REACHSMDAT": "1990\/01\/01", "REACHRESOL": 3, "FEATURECOM": 0.000000, "FEATURE_PE": "1320378", "FEATURECLA": 3.000000, "SOURCE_ORI": "CO", "SOURCE_DAT": "FAC no PIPE", "SOURCE_FEA": "COG650042", "FEATUREDET": "http:\/\/www.epa-echo.gov\/cgi-bin\/get1cReport.cgi?tool=echoamp;IDNumber=COG650042", "MEASURE": 1.969300, "OFFSET": 0.000000, "EVENTTYPE": "PCS", "GEOGSTATE": "CO", "CYCLE_YEAR": "", "START_DATE": "2012\/05\/30", "END_DATE": "1904\/02\/29", "WBD_HUC12": "140100030305", "WBD_HUC12_": 1.000000, "NAVIGABLE": "Y", "VERTICES": 1.000000, "AREA": 0.000000, "LEN": 0.000000 }, "geometry": { "type": "MultiPoint", "coordinates": [ [ -106.626439, 39.654754 ] ] } }
,
{ "type": "Feature", "id": 23, "properties": { "COMID": 10140369, "PERMANENT_": "{C158CA64-2CAA-4EAF-E043-0100007F1B58}", "EVENTDATE": "2012\/05\/31", "REACHCODE": "14010003000114", "REACHSMDAT": "1990\/01\/01", "REACHRESOL": 3, "FEATURECOM": 0.000000, "FEATURE_PE": "1319278", "FEATURECLA": 3.000000, "SOURCE_ORI": "CO", "SOURCE_DAT": "PIPE", "SOURCE_FEA": "CO0024431001", "FEATUREDET": "http:\/\/www.epa-echo.gov\/cgi-bin\/get1cReport.cgi?tool=echoamp;IDNumber=CO0024431", "MEASURE": 71.082200, "OFFSET": 0.000000, "EVENTTYPE": "PCS", "GEOGSTATE": "CO", "CYCLE_YEAR": "", "START_DATE": "2012\/05\/30", "END_DATE": "1904\/02\/29", "WBD_HUC12": "140100030302", "WBD_HUC12_": 1.000000, "NAVIGABLE": "Y", "VERTICES": 1.000000, "AREA": 0.000000, "LEN": 0.000000 }, "geometry": { "type": "MultiPoint", "coordinates": [ [ -106.531850, 39.635033 ] ] } }
,
{ "type": "Feature", "id": 24, "properties": { "COMID": 10140371, "PERMANENT_": "{C158CA64-2CAE-4EAF-E043-0100007F1B58}", "EVENTDATE": "2012\/05\/31", "REACHCODE": "14010003000114", "REACHSMDAT": "1990\/01\/01", "REACHRESOL": 3, "FEATURECOM": 0.000000, "FEATURE_PE": "1319278", "FEATURECLA": 3.000000, "SOURCE_ORI": "CO", "SOURCE_DAT": "PIPE", "SOURCE_FEA": "CO0024431003", "FEATUREDET": "http:\/\/www.epa-echo.gov\/cgi-bin\/get1cReport.cgi?tool=echoamp;IDNumber=CO0024431", "MEASURE": 76.682100, "OFFSET": 0.000000, "EVENTTYPE": "PCS", "GEOGSTATE": "CO", "CYCLE_YEAR": "", "START_DATE": "2012\/05\/30", "END_DATE": "1904\/02\/29", "WBD_HUC12": "140100030302", "WBD_HUC12_": 1.000000, "NAVIGABLE": "Y", "VERTICES": 1.000000, "AREA": 0.000000, "LEN": 0.000000 }, "geometry": { "type": "MultiPoint", "coordinates": [ [ -106.531036, 39.635120 ] ] } }
,
{ "type": "Feature", "id": 25, "properties": { "COMID": 10140372, "PERMANENT_": "{C158CA64-2CB0-4EAF-E043-0100007F1B58}", "EVENTDATE": "2012\/05\/31", "REACHCODE": "14010003000114", "REACHSMDAT": "1990\/01\/01", "REACHRESOL": 3, "FEATURECOM": 0.000000, "FEATURE_PE": "1319278", "FEATURECLA": 3.000000, "SOURCE_ORI": "CO", "SOURCE_DAT": "PIPE", "SOURCE_FEA": "CO0024431300", "FEATUREDET": "http:\/\/www.epa-echo.gov\/cgi-bin\/get1cReport.cgi?tool=echoamp;IDNumber=CO0024431", "MEASURE": 68.457200, "OFFSET": 0.000000, "EVENTTYPE": "PCS", "GEOGSTATE": "CO", "CYCLE_YEAR": "", "START_DATE": "2012\/05\/30", "END_DATE": "1904\/02\/29", "WBD_HUC12": "140100030302", "WBD_HUC12_": 1.000000, "NAVIGABLE": "Y", "VERTICES": 1.000000, "AREA": 0.000000, "LEN": 0.000000 }, "geometry": { "type": "MultiPoint", "coordinates": [ [ -106.532224, 39.634948 ] ] } }
,
{ "type": "Feature", "id": 26, "properties": { "COMID": 10140532, "PERMANENT_": "{C158CA64-2DF0-4EAF-E043-0100007F1B58}", "EVENTDATE": "2012\/05\/31", "REACHCODE": "14010003000663", "REACHSMDAT": "1990\/01\/01", "REACHRESOL": 3, "FEATURECOM": 0.000000, "FEATURE_PE": "1319158", "FEATURECLA": 3.000000, "SOURCE_ORI": "CO", "SOURCE_DAT": "FAC no PIPE", "SOURCE_FEA": "COG500342", "FEATUREDET": "http:\/\/www.epa-echo.gov\/cgi-bin\/get1cReport.cgi?tool=echoamp;IDNumber=COG500342", "MEASURE": 96.202600, "OFFSET": 0.000000, "EVENTTYPE": "PCS", "GEOGSTATE": "CO", "CYCLE_YEAR": "", "START_DATE": "2012\/05\/30", "END_DATE": "1904\/02\/29", "WBD_HUC12": "140100030605", "WBD_HUC12_": 1.000000, "NAVIGABLE": "N", "VERTICES": 1.000000, "AREA": 0.000000, "LEN": 0.000000 }, "geometry": { "type": "MultiPoint", "coordinates": [ [ -106.922172, 39.645699 ] ] } }
,
{ "type": "Feature", "id": 27, "properties": { "COMID": 10140689, "PERMANENT_": "{C158CA64-2F2A-4EAF-E043-0100007F1B58}", "EVENTDATE": "2012\/05\/31", "REACHCODE": "14010003000054", "REACHSMDAT": "1990\/01\/01", "REACHRESOL": 3, "FEATURECOM": 0.000000, "FEATURE_PE": "1319624", "FEATURECLA": 3.000000, "SOURCE_ORI": "CO", "SOURCE_DAT": "PIPE", "SOURCE_FEA": "COX631010001", "FEATUREDET": "http:\/\/www.epa-echo.gov\/cgi-bin\/get1cReport.cgi?tool=echoamp;IDNumber=COX631010", "MEASURE": 6.276100, "OFFSET": 0.000000, "EVENTTYPE": "PCS", "GEOGSTATE": "CO", "CYCLE_YEAR": "", "START_DATE": "2012\/05\/30", "END_DATE": "1904\/02\/29", "WBD_HUC12": "140100030404", "WBD_HUC12_": 1.000000, "NAVIGABLE": "Y", "VERTICES": 1.000000, "AREA": 0.000000, "LEN": 0.000000 }, "geometry": { "type": "MultiPoint", "coordinates": [ [ -106.763413, 39.579655 ] ] } }
,
{ "type": "Feature", "id": 28, "properties": { "COMID": 10140470, "PERMANENT_": "{C158CA64-2D74-4EAF-E043-0100007F1B58}", "EVENTDATE": "2012\/05\/31", "REACHCODE": "14010003000004", "REACHSMDAT": "1990\/01\/01", "REACHRESOL": 3, "FEATURECOM": 0.000000, "FEATURE_PE": "1319110", "FEATURECLA": 3.000000, "SOURCE_ORI": "CO", "SOURCE_DAT": "PIPE", "SOURCE_FEA": "CO0048830001", "FEATUREDET": "http:\/\/www.epa-echo.gov\/cgi-bin\/get1cReport.cgi?tool=echoamp;IDNumber=CO0048830", "MEASURE": 71.186100, "OFFSET": 0.000000, "EVENTTYPE": "PCS", "GEOGSTATE": "CO", "CYCLE_YEAR": "", "START_DATE": "2012\/05\/30", "END_DATE": "1904\/02\/29", "WBD_HUC12": "140100030606", "WBD_HUC12_": 1.000000, "NAVIGABLE": "Y", "VERTICES": 1.000000, "AREA": 0.000000, "LEN": 0.000000 }, "geometry": { "type": "MultiPoint", "coordinates": [ [ -106.964027, 39.649135 ] ] } }
,
{ "type": "Feature", "id": 29, "properties": { "COMID": 10166458, "PERMANENT_": "{C158CA64-F857-4EAF-E043-0100007F1B58}", "EVENTDATE": "2012\/05\/31", "REACHCODE": "14010003000703", "REACHSMDAT": "1990\/01\/01", "REACHRESOL": 3, "FEATURECOM": 0.000000, "FEATURE_PE": "1318656", "FEATURECLA": 3.000000, "SOURCE_ORI": "CO", "SOURCE_DAT": "PIPE", "SOURCE_FEA": "COX631012001", "FEATUREDET": "http:\/\/www.epa-echo.gov\/cgi-bin\/get1cReport.cgi?tool=echoamp;IDNumber=COX631012", "MEASURE": 36.272600, "OFFSET": 0.000000, "EVENTTYPE": "PCS", "GEOGSTATE": "CO", "CYCLE_YEAR": "", "START_DATE": "2012\/05\/30", "END_DATE": "1904\/02\/29", "WBD_HUC12": "140100030606", "WBD_HUC12_": 1.000000, "NAVIGABLE": "Y", "VERTICES": 1.000000, "AREA": 0.000000, "LEN": 0.000000 }, "geometry": { "type": "MultiPoint", "coordinates": [ [ -107.032095, 39.643335 ] ] } }
,
{ "type": "Feature", "id": 30, "properties": { "COMID": 10166459, "PERMANENT_": "{C158CA64-F859-4EAF-E043-0100007F1B58}", "EVENTDATE": "2012\/05\/31", "REACHCODE": "14010003000703", "REACHSMDAT": "1990\/01\/01", "REACHRESOL": 3, "FEATURECOM": 0.000000, "FEATURE_PE": "1318656", "FEATURECLA": 3.000000, "SOURCE_ORI": "CO", "SOURCE_DAT": "PIPE", "SOURCE_FEA": "COX631012300", "FEATUREDET": "http:\/\/www.epa-echo.gov\/cgi-bin\/get1cReport.cgi?tool=echoamp;IDNumber=COX631012", "MEASURE": 36.272600, "OFFSET": 0.000000, "EVENTTYPE": "PCS", "GEOGSTATE": "CO", "CYCLE_YEAR": "", "START_DATE": "2012\/05\/30", "END_DATE": "1904\/02\/29", "WBD_HUC12": "140100030606", "WBD_HUC12_": 1.000000, "NAVIGABLE": "Y", "VERTICES": 1.000000, "AREA": 0.000000, "LEN": 0.000000 }, "geometry": { "type": "MultiPoint", "coordinates": [ [ -107.032095, 39.643335 ] ] } }
,
{ "type": "Feature", "id": 31, "properties": { "COMID": 10166369, "PERMANENT_": "{C158CA64-F7A5-4EAF-E043-0100007F1B58}", "EVENTDATE": "2012\/05\/31", "REACHCODE": "14010003000169", "REACHSMDAT": "1990\/01\/01", "REACHRESOL": 3, "FEATURECOM": 0.000000, "FEATURE_PE": "1319234", "FEATURECLA": 3.000000, "SOURCE_ORI": "CO", "SOURCE_DAT": "PIPE", "SOURCE_FEA": "COG603155001", "FEATUREDET": "http:\/\/www.epa-echo.gov\/cgi-bin\/get1cReport.cgi?tool=echoamp;IDNumber=COG603155", "MEASURE": 56.701100, "OFFSET": 0.000000, "EVENTTYPE": "PCS", "GEOGSTATE": "CO", "CYCLE_YEAR": "", "START_DATE": "2012\/05\/30", "END_DATE": "1904\/02\/29", "WBD_HUC12": "140100030103", "WBD_HUC12_": 1.000000, "NAVIGABLE": "Y", "VERTICES": 1.000000, "AREA": 0.000000, "LEN": 0.000000 }, "geometry": { "type": "MultiPoint", "coordinates": [ [ -106.375806, 39.641188 ] ] } }
,
{ "type": "Feature", "id": 32, "properties": { "COMID": 10166390, "PERMANENT_": "{C158CA64-F7CF-4EAF-E043-0100007F1B58}", "EVENTDATE": "2012\/05\/31", "REACHCODE": "14010003000109", "REACHSMDAT": "1990\/01\/01", "REACHRESOL": 3, "FEATURECOM": 0.000000, "FEATURE_PE": "1319220", "FEATURECLA": 3.000000, "SOURCE_ORI": "CO", "SOURCE_DAT": "PIPE", "SOURCE_FEA": "COG641105001", "FEATUREDET": "http:\/\/www.epa-echo.gov\/cgi-bin\/get1cReport.cgi?tool=echoamp;IDNumber=COG641105", "MEASURE": 19.634900, "OFFSET": 0.000000, "EVENTTYPE": "PCS", "GEOGSTATE": "CO", "CYCLE_YEAR": "", "START_DATE": "2012\/05\/30", "END_DATE": "1904\/02\/29", "WBD_HUC12": "140100030304", "WBD_HUC12_": 1.000000, "NAVIGABLE": "Y", "VERTICES": 1.000000, "AREA": 0.000000, "LEN": 0.000000 }, "geometry": { "type": "MultiPoint", "coordinates": [ [ -106.589868, 39.643414 ] ] } }
,
{ "type": "Feature", "id": 33, "properties": { "COMID": 10166332, "PERMANENT_": "{C158CA64-F75B-4EAF-E043-0100007F1B58}", "EVENTDATE": "2012\/05\/31", "REACHCODE": "14010003000170", "REACHSMDAT": "1990\/01\/01", "REACHRESOL": 3, "FEATURECOM": 0.000000, "FEATURE_PE": "1319264", "FEATURECLA": 3.000000, "SOURCE_ORI": "CO", "SOURCE_DAT": "FAC no PIPE", "SOURCE_FEA": "COG600381", "FEATUREDET": "http:\/\/www.epa-echo.gov\/cgi-bin\/get1cReport.cgi?tool=echoamp;IDNumber=COG600381", "MEASURE": 26.948900, "OFFSET": 0.000000, "EVENTTYPE": "PCS", "GEOGSTATE": "CO", "CYCLE_YEAR": "", "START_DATE": "2012\/05\/30", "END_DATE": "1904\/02\/29", "WBD_HUC12": "140100030102", "WBD_HUC12_": 1.000000, "NAVIGABLE": "Y", "VERTICES": 1.000000, "AREA": 0.000000, "LEN": 0.000000 }, "geometry": { "type": "MultiPoint", "coordinates": [ [ -106.359749, 39.640251 ] ] } }
,
{ "type": "Feature", "id": 34, "properties": { "COMID": 10192785, "PERMANENT_": "{C158CA65-C5E3-4EAF-E043-0100007F1B58}", "EVENTDATE": "2012\/05\/31", "REACHCODE": "14010003000157", "REACHSMDAT": "1990\/01\/01", "REACHRESOL": 3, "FEATURECOM": 0.000000, "FEATURE_PE": "1320870", "FEATURECLA": 3.000000, "SOURCE_ORI": "CO", "SOURCE_DAT": "PIPE", "SOURCE_FEA": "COG073737G004", "FEATUREDET": "http:\/\/www.epa-echo.gov\/cgi-bin\/get1cReport.cgi?tool=echoamp;IDNumber=COG073737", "MEASURE": 71.011600, "OFFSET": 0.000000, "EVENTTYPE": "PCS", "GEOGSTATE": "CO", "CYCLE_YEAR": "", "START_DATE": "2012\/05\/30", "END_DATE": "1904\/02\/29", "WBD_HUC12": "140100030206", "WBD_HUC12_": 1.000000, "NAVIGABLE": "Y", "VERTICES": 1.000000, "AREA": 0.000000, "LEN": 0.000000 }, "geometry": { "type": "MultiPoint", "coordinates": [ [ -106.323759, 39.441447 ] ] } }
,
{ "type": "Feature", "id": 35, "properties": { "COMID": 10192718, "PERMANENT_": "{C158CA65-C55D-4EAF-E043-0100007F1B58}", "EVENTDATE": "2012\/05\/31", "REACHCODE": "14010003000600", "REACHSMDAT": "1990\/01\/01", "REACHRESOL": 3, "FEATURECOM": 0.000000, "FEATURE_PE": "1320378", "FEATURECLA": 3.000000, "SOURCE_ORI": "CO", "SOURCE_DAT": "PIPE", "SOURCE_FEA": "CO0037311300", "FEATUREDET": "http:\/\/www.epa-echo.gov\/cgi-bin\/get1cReport.cgi?tool=echoamp;IDNumber=CO0037311", "MEASURE": 1.715400, "OFFSET": 0.000000, "EVENTTYPE": "PCS", "GEOGSTATE": "CO", "CYCLE_YEAR": "", "START_DATE": "2012\/05\/30", "END_DATE": "1904\/02\/29", "WBD_HUC12": "140100030305", "WBD_HUC12_": 1.000000, "NAVIGABLE": "Y", "VERTICES": 1.000000, "AREA": 0.000000, "LEN": 0.000000 }, "geometry": { "type": "MultiPoint", "coordinates": [ [ -106.626494, 39.654651 ] ] } }
,
{ "type": "Feature", "id": 36, "properties": { "COMID": 10192850, "PERMANENT_": "{C158CA65-C665-4EAF-E043-0100007F1B58}", "EVENTDATE": "2012\/05\/31", "REACHCODE": "14010003000503", "REACHSMDAT": "1990\/01\/01", "REACHRESOL": 3, "FEATURECOM": 0.000000, "FEATURE_PE": "1319924", "FEATURECLA": 3.000000, "SOURCE_ORI": "CO", "SOURCE_DAT": "FAC no PIPE", "SOURCE_FEA": "COG600181", "FEATUREDET": "http:\/\/www.epa-echo.gov\/cgi-bin\/get1cReport.cgi?tool=echoamp;IDNumber=COG600181", "MEASURE": 8.747100, "OFFSET": 0.000000, "EVENTTYPE": "PCS", "GEOGSTATE": "CO", "CYCLE_YEAR": "", "START_DATE": "2012\/05\/30", "END_DATE": "1904\/02\/29", "WBD_HUC12": "140100030203", "WBD_HUC12_": 1.000000, "NAVIGABLE": "Y", "VERTICES": 1.000000, "AREA": 0.000000, "LEN": 0.000000 }, "geometry": { "type": "MultiPoint", "coordinates": [ [ -106.286670, 39.516534 ] ] } }
,
{ "type": "Feature", "id": 37, "properties": { "COMID": 10192895, "PERMANENT_": "{C158CA65-C6BF-4EAF-E043-0100007F1B58}", "EVENTDATE": "2012\/05\/31", "REACHCODE": "14010003000650", "REACHSMDAT": "1990\/01\/01", "REACHRESOL": 3, "FEATURECOM": 0.000000, "FEATURE_PE": "1319078", "FEATURECLA": 3.000000, "SOURCE_ORI": "CO", "SOURCE_DAT": "FAC no PIPE", "SOURCE_FEA": "COG650041", "FEATUREDET": "http:\/\/www.epa-echo.gov\/cgi-bin\/get1cReport.cgi?tool=echoamp;IDNumber=COG650041", "MEASURE": 3.521600, "OFFSET": 0.000000, "EVENTTYPE": "PCS", "GEOGSTATE": "CO", "CYCLE_YEAR": "", "START_DATE": "2012\/05\/30", "END_DATE": "1904\/02\/29", "WBD_HUC12": "140100030606", "WBD_HUC12_": 1.000000, "NAVIGABLE": "Y", "VERTICES": 1.000000, "AREA": 0.000000, "LEN": 0.000000 }, "geometry": { "type": "MultiPoint", "coordinates": [ [ -106.963265, 39.652494 ] ] } }
,
{ "type": "Feature", "id": 38, "properties": { "COMID": 10192780, "PERMANENT_": "{C158CA65-C5D9-4EAF-E043-0100007F1B58}", "EVENTDATE": "2012\/05\/31", "REACHCODE": "14010003000157", "REACHSMDAT": "1990\/01\/01", "REACHRESOL": 3, "FEATURECOM": 0.000000, "FEATURE_PE": "1320870", "FEATURECLA": 3.000000, "SOURCE_ORI": "CO", "SOURCE_DAT": "PIPE", "SOURCE_FEA": "COG073737001", "FEATUREDET": "http:\/\/www.epa-echo.gov\/cgi-bin\/get1cReport.cgi?tool=echoamp;IDNumber=COG073737", "MEASURE": 71.011600, "OFFSET": 0.000000, "EVENTTYPE": "PCS", "GEOGSTATE": "CO", "CYCLE_YEAR": "", "START_DATE": "2012\/05\/30", "END_DATE": "1904\/02\/29", "WBD_HUC12": "140100030206", "WBD_HUC12_": 1.000000, "NAVIGABLE": "Y", "VERTICES": 1.000000, "AREA": 0.000000, "LEN": 0.000000 }, "geometry": { "type": "MultiPoint", "coordinates": [ [ -106.323759, 39.441447 ] ] } }
,
{ "type": "Feature", "id": 39, "properties": { "COMID": 10192781, "PERMANENT_": "{C158CA65-C5DB-4EAF-E043-0100007F1B58}", "EVENTDATE": "2012\/05\/31", "REACHCODE": "14010003000157", "REACHSMDAT": "1990\/01\/01", "REACHRESOL": 3, "FEATURECOM": 0.000000, "FEATURE_PE": "1320870", "FEATURECLA": 3.000000, "SOURCE_ORI": "CO", "SOURCE_DAT": "PIPE", "SOURCE_FEA": "COG073737002", "FEATUREDET": "http:\/\/www.epa-echo.gov\/cgi-bin\/get1cReport.cgi?tool=echoamp;IDNumber=COG073737", "MEASURE": 71.011600, "OFFSET": 0.000000, "EVENTTYPE": "PCS", "GEOGSTATE": "CO", "CYCLE_YEAR": "", "START_DATE": "2012\/05\/30", "END_DATE": "1904\/02\/29", "WBD_HUC12": "140100030206", "WBD_HUC12_": 1.000000, "NAVIGABLE": "Y", "VERTICES": 1.000000, "AREA": 0.000000, "LEN": 0.000000 }, "geometry": { "type": "MultiPoint", "coordinates": [ [ -106.323759, 39.441447 ] ] } }
,
{ "type": "Feature", "id": 40, "properties": { "COMID": 10192782, "PERMANENT_": "{C158CA65-C5DD-4EAF-E043-0100007F1B58}", "EVENTDATE": "2012\/05\/31", "REACHCODE": "14010003000157", "REACHSMDAT": "1990\/01\/01", "REACHRESOL": 3, "FEATURECOM": 0.000000, "FEATURE_PE": "1320870", "FEATURECLA": 3.000000, "SOURCE_ORI": "CO", "SOURCE_DAT": "PIPE", "SOURCE_FEA": "COG073737G001", "FEATUREDET": "http:\/\/www.epa-echo.gov\/cgi-bin\/get1cReport.cgi?tool=echoamp;IDNumber=COG073737", "MEASURE": 71.011600, "OFFSET": 0.000000, "EVENTTYPE": "PCS", "GEOGSTATE": "CO", "CYCLE_YEAR": "", "START_DATE": "2012\/05\/30", "END_DATE": "1904\/02\/29", "WBD_HUC12": "140100030206", "WBD_HUC12_": 1.000000, "NAVIGABLE": "Y", "VERTICES": 1.000000, "AREA": 0.000000, "LEN": 0.000000 }, "geometry": { "type": "MultiPoint", "coordinates": [ [ -106.323759, 39.441447 ] ] } }
,
{ "type": "Feature", "id": 41, "properties": { "COMID": 10192784, "PERMANENT_": "{C158CA65-C5E1-4EAF-E043-0100007F1B58}", "EVENTDATE": "2012\/05\/31", "REACHCODE": "14010003000157", "REACHSMDAT": "1990\/01\/01", "REACHRESOL": 3, "FEATURECOM": 0.000000, "FEATURE_PE": "1320870", "FEATURECLA": 3.000000, "SOURCE_ORI": "CO", "SOURCE_DAT": "PIPE", "SOURCE_FEA": "COG073737G003", "FEATUREDET": "http:\/\/www.epa-echo.gov\/cgi-bin\/get1cReport.cgi?tool=echoamp;IDNumber=COG073737", "MEASURE": 71.011600, "OFFSET": 0.000000, "EVENTTYPE": "PCS", "GEOGSTATE": "CO", "CYCLE_YEAR": "", "START_DATE": "2012\/05\/30", "END_DATE": "1904\/02\/29", "WBD_HUC12": "140100030206", "WBD_HUC12_": 1.000000, "NAVIGABLE": "Y", "VERTICES": 1.000000, "AREA": 0.000000, "LEN": 0.000000 }, "geometry": { "type": "MultiPoint", "coordinates": [ [ -106.323759, 39.441447 ] ] } }
,
{ "type": "Feature", "id": 42, "properties": { "COMID": 10218818, "PERMANENT_": "{C158CA66-911D-4EAF-E043-0100007F1B58}", "EVENTDATE": "2012\/05\/31", "REACHCODE": "14010003000167", "REACHSMDAT": "1990\/01\/01", "REACHRESOL": 3, "FEATURECOM": 0.000000, "FEATURE_PE": "1319236", "FEATURECLA": 3.000000, "SOURCE_ORI": "CO", "SOURCE_DAT": "PIPE", "SOURCE_FEA": "COG603151001", "FEATUREDET": "http:\/\/www.epa-echo.gov\/cgi-bin\/get1cReport.cgi?tool=echoamp;IDNumber=COG603151", "MEASURE": 62.025200, "OFFSET": 0.000000, "EVENTTYPE": "PCS", "GEOGSTATE": "CO", "CYCLE_YEAR": "", "START_DATE": "2012\/05\/30", "END_DATE": "1904\/02\/29", "WBD_HUC12": "140100030103", "WBD_HUC12_": 1.000000, "NAVIGABLE": "Y", "VERTICES": 1.000000, "AREA": 0.000000, "LEN": 0.000000 }, "geometry": { "type": "MultiPoint", "coordinates": [ [ -106.388470, 39.641782 ] ] } }
,
{ "type": "Feature", "id": 43, "properties": { "COMID": 10218806, "PERMANENT_": "{C158CA66-9105-4EAF-E043-0100007F1B58}", "EVENTDATE": "2012\/05\/31", "REACHCODE": "14010003000170", "REACHSMDAT": "1990\/01\/01", "REACHRESOL": 3, "FEATURECOM": 0.000000, "FEATURE_PE": "1319264", "FEATURECLA": 3.000000, "SOURCE_ORI": "CO", "SOURCE_DAT": "PIPE", "SOURCE_FEA": "COG603008001", "FEATUREDET": "http:\/\/www.epa-echo.gov\/cgi-bin\/get1cReport.cgi?tool=echoamp;IDNumber=COG603008", "MEASURE": 3.473700, "OFFSET": 0.000000, "EVENTTYPE": "PCS", "GEOGSTATE": "CO", "CYCLE_YEAR": "", "START_DATE": "2012\/05\/30", "END_DATE": "1904\/02\/29", "WBD_HUC12": "140100030102", "WBD_HUC12_": 1.000000, "NAVIGABLE": "Y", "VERTICES": 1.000000, "AREA": 0.000000, "LEN": 0.000000 }, "geometry": { "type": "MultiPoint", "coordinates": [ [ -106.370846, 39.641090 ] ] } }
,
{ "type": "Feature", "id": 44, "properties": { "COMID": 10218814, "PERMANENT_": "{C158CA66-9115-4EAF-E043-0100007F1B58}", "EVENTDATE": "2012\/05\/31", "REACHCODE": "14010003000170", "REACHSMDAT": "1990\/01\/01", "REACHRESOL": 3, "FEATURECOM": 0.000000, "FEATURE_PE": "1319264", "FEATURECLA": 3.000000, "SOURCE_ORI": "CO", "SOURCE_DAT": "PIPE", "SOURCE_FEA": "COG603120001", "FEATUREDET": "http:\/\/www.epa-echo.gov\/cgi-bin\/get1cReport.cgi?tool=echoamp;IDNumber=COG603120", "MEASURE": 8.914600, "OFFSET": 0.000000, "EVENTTYPE": "PCS", "GEOGSTATE": "CO", "CYCLE_YEAR": "", "START_DATE": "2012\/05\/30", "END_DATE": "1904\/02\/29", "WBD_HUC12": "140100030102", "WBD_HUC12_": 1.000000, "NAVIGABLE": "Y", "VERTICES": 1.000000, "AREA": 0.000000, "LEN": 0.000000 }, "geometry": { "type": "MultiPoint", "coordinates": [ [ -106.368078, 39.640482 ] ] } }
,
{ "type": "Feature", "id": 45, "properties": { "COMID": 10218589, "PERMANENT_": "{C158CA66-8F53-4EAF-E043-0100007F1B58}", "EVENTDATE": "2012\/05\/31", "REACHCODE": "14010003000136", "REACHSMDAT": "1990\/01\/01", "REACHRESOL": 3, "FEATURECOM": 0.000000, "FEATURE_PE": "1319752", "FEATURECLA": 3.000000, "SOURCE_ORI": "CO", "SOURCE_DAT": "PIPE", "SOURCE_FEA": "CO0042480MON", "FEATUREDET": "http:\/\/www.epa-echo.gov\/cgi-bin\/get1cReport.cgi?tool=echoamp;IDNumber=CO0042480", "MEASURE": 13.247600, "OFFSET": 0.000000, "EVENTTYPE": "PCS", "GEOGSTATE": "CO", "CYCLE_YEAR": "", "START_DATE": "2012\/05\/30", "END_DATE": "1904\/02\/29", "WBD_HUC12": "140100030209", "WBD_HUC12_": 1.000000, "NAVIGABLE": "Y", "VERTICES": 1.000000, "AREA": 0.000000, "LEN": 0.000000 }, "geometry": { "type": "MultiPoint", "coordinates": [ [ -106.400240, 39.561697 ] ] } }
,
{ "type": "Feature", "id": 46, "properties": { "COMID": 10218705, "PERMANENT_": "{C158CA66-903B-4EAF-E043-0100007F1B58}", "EVENTDATE": "2012\/05\/31", "REACHCODE": "14010003000664", "REACHSMDAT": "1990\/01\/01", "REACHRESOL": 3, "FEATURECOM": 0.000000, "FEATURE_PE": "1319256", "FEATURECLA": 3.000000, "SOURCE_ORI": "CO", "SOURCE_DAT": "FAC no PIPE", "SOURCE_FEA": "COG071259", "FEATUREDET": "http:\/\/www.epa-echo.gov\/cgi-bin\/get1cReport.cgi?tool=echoamp;IDNumber=COG071259", "MEASURE": 17.773400, "OFFSET": 0.000000, "EVENTTYPE": "PCS", "GEOGSTATE": "CO", "CYCLE_YEAR": "", "START_DATE": "2012\/05\/30", "END_DATE": "1904\/02\/29", "WBD_HUC12": "140100030302", "WBD_HUC12_": 1.000000, "NAVIGABLE": "N", "VERTICES": 1.000000, "AREA": 0.000000, "LEN": 0.000000 }, "geometry": { "type": "MultiPoint", "coordinates": [ [ -106.526908, 39.638637 ] ] } }
,
{ "type": "Feature", "id": 47, "properties": { "COMID": 10218729, "PERMANENT_": "{C158CA66-906B-4EAF-E043-0100007F1B58}", "EVENTDATE": "2012\/05\/31", "REACHCODE": "14010003000073", "REACHSMDAT": "1990\/01\/01", "REACHRESOL": 3, "FEATURECOM": 0.000000, "FEATURE_PE": "1319062", "FEATURECLA": 3.000000, "SOURCE_ORI": "CO", "SOURCE_DAT": "PIPE", "SOURCE_FEA": "COG073803001", "FEATUREDET": "http:\/\/www.epa-echo.gov\/cgi-bin\/get1cReport.cgi?tool=echoamp;IDNumber=COG073803", "MEASURE": 86.992200, "OFFSET": 0.000000, "EVENTTYPE": "PCS", "GEOGSTATE": "CO", "CYCLE_YEAR": "", "START_DATE": "2012\/05\/30", "END_DATE": "1904\/02\/29", "WBD_HUC12": "140100030603", "WBD_HUC12_": 1.000000, "NAVIGABLE": "Y", "VERTICES": 1.000000, "AREA": 0.000000, "LEN": 0.000000 }, "geometry": { "type": "MultiPoint", "coordinates": [ [ -106.815000, 39.660208 ] ] } }
,
{ "type": "Feature", "id": 48, "properties": { "COMID": 10218849, "PERMANENT_": "{C158CA66-915B-4EAF-E043-0100007F1B58}", "EVENTDATE": "2012\/05\/31", "REACHCODE": "14010003000169", "REACHSMDAT": "1990\/01\/01", "REACHRESOL": 3, "FEATURECOM": 0.000000, "FEATURE_PE": "1319234", "FEATURECLA": 3.000000, "SOURCE_ORI": "CO", "SOURCE_DAT": "PIPE", "SOURCE_FEA": "COG605009001", "FEATUREDET": "http:\/\/www.epa-echo.gov\/cgi-bin\/get1cReport.cgi?tool=echoamp;IDNumber=COG605009", "MEASURE": 86.182300, "OFFSET": 0.000000, "EVENTTYPE": "PCS", "GEOGSTATE": "CO", "CYCLE_YEAR": "", "START_DATE": "2012\/05\/30", "END_DATE": "1904\/02\/29", "WBD_HUC12": "140100030103", "WBD_HUC12_": 1.000000, "NAVIGABLE": "Y", "VERTICES": 1.000000, "AREA": 0.000000, "LEN": 0.000000 }, "geometry": { "type": "MultiPoint", "coordinates": [ [ -106.373612, 39.641385 ] ] } }
,
{ "type": "Feature", "id": 49, "properties": { "COMID": 10218863, "PERMANENT_": "{C158CA66-9177-4EAF-E043-0100007F1B58}", "EVENTDATE": "2012\/05\/31", "REACHCODE": "14010003000714", "REACHSMDAT": "1990\/01\/01", "REACHRESOL": 3, "FEATURECOM": 0.000000, "FEATURE_PE": "1319612", "FEATURECLA": 3.000000, "SOURCE_ORI": "CO", "SOURCE_DAT": "FAC no PIPE", "SOURCE_FEA": "COG641114", "FEATUREDET": "http:\/\/www.epa-echo.gov\/cgi-bin\/get1cReport.cgi?tool=echoamp;IDNumber=COG641114", "MEASURE": 78.089100, "OFFSET": 0.000000, "EVENTTYPE": "PCS", "GEOGSTATE": "CO", "CYCLE_YEAR": "", "START_DATE": "2012\/05\/30", "END_DATE": "1904\/02\/29", "WBD_HUC12": "140100030503", "WBD_HUC12_": 1.000000, "NAVIGABLE": "Y", "VERTICES": 1.000000, "AREA": 0.000000, "LEN": 0.000000 }, "geometry": { "type": "MultiPoint", "coordinates": [ [ -106.952903, 39.577240 ] ] } }
,
{ "type": "Feature", "id": 50, "properties": { "COMID": 10218868, "PERMANENT_": "{C158CA66-9181-4EAF-E043-0100007F1B58}", "EVENTDATE": "2012\/05\/31", "REACHCODE": "14010003000270", "REACHSMDAT": "1990\/01\/01", "REACHRESOL": 3, "FEATURECOM": 0.000000, "FEATURE_PE": "1319166", "FEATURECLA": 3.000000, "SOURCE_ORI": "CO", "SOURCE_DAT": "FAC no PIPE", "SOURCE_FEA": "COG650008", "FEATUREDET": "http:\/\/www.epa-echo.gov\/cgi-bin\/get1cReport.cgi?tool=echoamp;IDNumber=COG650008", "MEASURE": 23.781700, "OFFSET": 0.000000, "EVENTTYPE": "PCS", "GEOGSTATE": "CO", "CYCLE_YEAR": "", "START_DATE": "2012\/05\/30", "END_DATE": "1904\/02\/29", "WBD_HUC12": "140100030605", "WBD_HUC12_": 1.000000, "NAVIGABLE": "N", "VERTICES": 1.000000, "AREA": 0.000000, "LEN": 0.000000 }, "geometry": { "type": "MultiPoint", "coordinates": [ [ -106.848512, 39.646334 ] ] } }
,
{ "type": "Feature", "id": 51, "properties": { "COMID": 10218886, "PERMANENT_": "{C158CA66-91A5-4EAF-E043-0100007F1B58}", "EVENTDATE": "2012\/05\/31", "REACHCODE": "14010003000052", "REACHSMDAT": "1990\/01\/01", "REACHRESOL": 3, "FEATURECOM": 0.000000, "FEATURE_PE": "1319490", "FEATURECLA": 3.000000, "SOURCE_ORI": "CO", "SOURCE_DAT": "FAC no PIPE", "SOURCE_FEA": "COR038057", "FEATUREDET": "http:\/\/www.epa-echo.gov\/cgi-bin\/get1cReport.cgi?tool=echoamp;IDNumber=COR038057", "MEASURE": 73.980500, "OFFSET": 0.000000, "EVENTTYPE": "PCS", "GEOGSTATE": "CO", "CYCLE_YEAR": "", "START_DATE": "2012\/05\/30", "END_DATE": "1904\/02\/29", "WBD_HUC12": "140100030404", "WBD_HUC12_": 1.000000, "NAVIGABLE": "Y", "VERTICES": 1.000000, "AREA": 0.000000, "LEN": 0.000000 }, "geometry": { "type": "MultiPoint", "coordinates": [ [ -106.762119, 39.597895 ] ] } }
,
{ "type": "Feature", "id": 52, "properties": { "COMID": 10036975, "PERMANENT_": "{C158CA61-055C-4EAF-E043-0100007F1B58}", "EVENTDATE": "2012\/05\/31", "REACHCODE": "14010003000114", "REACHSMDAT": "1990\/01\/01", "REACHRESOL": 3, "FEATURECOM": 0.000000, "FEATURE_PE": "1319278", "FEATURECLA": 3.000000, "SOURCE_ORI": "CO", "SOURCE_DAT": "PIPE", "SOURCE_FEA": "COG641058002", "FEATUREDET": "http:\/\/www.epa-echo.gov\/cgi-bin\/get1cReport.cgi?tool=echoamp;IDNumber=COG641058", "MEASURE": 33.534800, "OFFSET": 0.000000, "EVENTTYPE": "PCS", "GEOGSTATE": "CO", "CYCLE_YEAR": "", "START_DATE": "2012\/05\/30", "END_DATE": "1904\/02\/29", "WBD_HUC12": "140100030302", "WBD_HUC12_": 1.000000, "NAVIGABLE": "Y", "VERTICES": 1.000000, "AREA": 0.000000, "LEN": 0.000000 }, "geometry": { "type": "MultiPoint", "coordinates": [ [ -106.536888, 39.636533 ] ] } }
,
{ "type": "Feature", "id": 53, "properties": { "COMID": 10037043, "PERMANENT_": "{C158CA61-05E4-4EAF-E043-0100007F1B58}", "EVENTDATE": "2012\/05\/31", "REACHCODE": "14010003000189", "REACHSMDAT": "1990\/01\/01", "REACHRESOL": 3, "FEATURECOM": 0.000000, "FEATURE_PE": "1319170", "FEATURECLA": 3.000000, "SOURCE_ORI": "CO", "SOURCE_DAT": "FAC no PIPE", "SOURCE_FEA": "COU000322", "FEATUREDET": "http:\/\/www.epa-echo.gov\/cgi-bin\/get1cReport.cgi?tool=echoamp;IDNumber=COU000322", "MEASURE": 50.465400, "OFFSET": 0.000000, "EVENTTYPE": "PCS", "GEOGSTATE": "CO", "CYCLE_YEAR": "", "START_DATE": "2012\/05\/30", "END_DATE": "1904\/02\/29", "WBD_HUC12": "140100030605", "WBD_HUC12_": 1.000000, "NAVIGABLE": "Y", "VERTICES": 1.000000, "AREA": 0.000000, "LEN": 0.000000 }, "geometry": { "type": "MultiPoint", "coordinates": [ [ -106.933607, 39.647112 ] ] } }
,
{ "type": "Feature", "id": 54, "properties": { "COMID": 10062682, "PERMANENT_": "{C158CA61-CE13-4EAF-E043-0100007F1B58}", "EVENTDATE": "2012\/05\/31", "REACHCODE": "14010003000167", "REACHSMDAT": "1990\/01\/01", "REACHRESOL": 3, "FEATURECOM": 0.000000, "FEATURE_PE": "1319236", "FEATURECLA": 3.000000, "SOURCE_ORI": "CO", "SOURCE_DAT": "PIPE", "SOURCE_FEA": "CO0021369300", "FEATUREDET": "http:\/\/www.epa-echo.gov\/cgi-bin\/get1cReport.cgi?tool=echoamp;IDNumber=CO0021369", "MEASURE": 16.694700, "OFFSET": 0.000000, "EVENTTYPE": "PCS", "GEOGSTATE": "CO", "CYCLE_YEAR": "", "START_DATE": "2012\/05\/30", "END_DATE": "1904\/02\/29", "WBD_HUC12": "140100030103", "WBD_HUC12_": 1.000000, "NAVIGABLE": "Y", "VERTICES": 1.000000, "AREA": 0.000000, "LEN": 0.000000 }, "geometry": { "type": "MultiPoint", "coordinates": [ [ -106.393795, 39.641051 ] ] } }
,
{ "type": "Feature", "id": 55, "properties": { "COMID": 10088541, "PERMANENT_": "{C158CA62-9801-4EAF-E043-0100007F1B58}", "EVENTDATE": "2012\/05\/31", "REACHCODE": "14010003000154", "REACHSMDAT": "1990\/01\/01", "REACHRESOL": 3, "FEATURECOM": 0.000000, "FEATURE_PE": "1319950", "FEATURECLA": 3.000000, "SOURCE_ORI": "CO", "SOURCE_DAT": "PIPE", "SOURCE_FEA": "CO0021385300", "FEATUREDET": "http:\/\/www.epa-echo.gov\/cgi-bin\/get1cReport.cgi?tool=echoamp;IDNumber=CO0021385", "MEASURE": 3.732800, "OFFSET": 0.000000, "EVENTTYPE": "PCS", "GEOGSTATE": "CO", "CYCLE_YEAR": "", "START_DATE": "2012\/05\/30", "END_DATE": "1904\/02\/29", "WBD_HUC12": "140100030206", "WBD_HUC12_": 1.000000, "NAVIGABLE": "Y", "VERTICES": 1.000000, "AREA": 0.000000, "LEN": 0.000000 }, "geometry": { "type": "MultiPoint", "coordinates": [ [ -106.378269, 39.507675 ] ] } }
,
{ "type": "Feature", "id": 56, "properties": { "COMID": 10140370, "PERMANENT_": "{C158CA64-2CAC-4EAF-E043-0100007F1B58}", "EVENTDATE": "2012\/05\/31", "REACHCODE": "14010003000114", "REACHSMDAT": "1990\/01\/01", "REACHRESOL": 3, "FEATURECOM": 0.000000, "FEATURE_PE": "1319278", "FEATURECLA": 3.000000, "SOURCE_ORI": "CO", "SOURCE_DAT": "PIPE", "SOURCE_FEA": "CO0024431002", "FEATUREDET": "http:\/\/www.epa-echo.gov\/cgi-bin\/get1cReport.cgi?tool=echoamp;IDNumber=CO0024431", "MEASURE": 78.237900, "OFFSET": 0.000000, "EVENTTYPE": "PCS", "GEOGSTATE": "CO", "CYCLE_YEAR": "", "START_DATE": "2012\/05\/30", "END_DATE": "1904\/02\/29", "WBD_HUC12": "140100030302", "WBD_HUC12_": 1.000000, "NAVIGABLE": "Y", "VERTICES": 1.000000, "AREA": 0.000000, "LEN": 0.000000 }, "geometry": { "type": "MultiPoint", "coordinates": [ [ -106.530810, 39.635142 ] ] } }
,
{ "type": "Feature", "id": 57, "properties": { "COMID": 10166410, "PERMANENT_": "{C158CA64-F7F7-4EAF-E043-0100007F1B58}", "EVENTDATE": "2012\/05\/31", "REACHCODE": "14010003000703", "REACHSMDAT": "1990\/01\/01", "REACHRESOL": 3, "FEATURECOM": 0.000000, "FEATURE_PE": "1318656", "FEATURECLA": 3.000000, "SOURCE_ORI": "CO", "SOURCE_DAT": "FAC no PIPE", "SOURCE_FEA": "COG650186", "FEATUREDET": "http:\/\/www.epa-echo.gov\/cgi-bin\/get1cReport.cgi?tool=echoamp;IDNumber=COG650186", "MEASURE": 36.272600, "OFFSET": 0.000000, "EVENTTYPE": "PCS", "GEOGSTATE": "CO", "CYCLE_YEAR": "", "START_DATE": "2012\/05\/30", "END_DATE": "1904\/02\/29", "WBD_HUC12": "140100030606", "WBD_HUC12_": 1.000000, "NAVIGABLE": "Y", "VERTICES": 1.000000, "AREA": 0.000000, "LEN": 0.000000 }, "geometry": { "type": "MultiPoint", "coordinates": [ [ -107.032095, 39.643335 ] ] } }
,
{ "type": "Feature", "id": 58, "properties": { "COMID": 10218588, "PERMANENT_": "{C158CA66-8F51-4EAF-E043-0100007F1B58}", "EVENTDATE": "2012\/05\/31", "REACHCODE": "14010003000136", "REACHSMDAT": "1990\/01\/01", "REACHRESOL": 3, "FEATURECOM": 0.000000, "FEATURE_PE": "1319752", "FEATURECLA": 3.000000, "SOURCE_ORI": "CO", "SOURCE_DAT": "PIPE", "SOURCE_FEA": "CO0042480001", "FEATUREDET": "http:\/\/www.epa-echo.gov\/cgi-bin\/get1cReport.cgi?tool=echoamp;IDNumber=CO0042480", "MEASURE": 13.247600, "OFFSET": 0.000000, "EVENTTYPE": "PCS", "GEOGSTATE": "CO", "CYCLE_YEAR": "", "START_DATE": "2012\/05\/30", "END_DATE": "1904\/02\/29", "WBD_HUC12": "140100030209", "WBD_HUC12_": 1.000000, "NAVIGABLE": "Y", "VERTICES": 1.000000, "AREA": 0.000000, "LEN": 0.000000 }, "geometry": { "type": "MultiPoint", "coordinates": [ [ -106.400240, 39.561697 ] ] } }
,
{ "type": "Feature", "id": 59, "properties": { "COMID": 10192717, "PERMANENT_": "{C158CA65-C55B-4EAF-E043-0100007F1B58}", "EVENTDATE": "2012\/05\/31", "REACHCODE": "14010003000600", "REACHSMDAT": "1990\/01\/01", "REACHRESOL": 3, "FEATURECOM": 0.000000, "FEATURE_PE": "1320378", "FEATURECLA": 3.000000, "SOURCE_ORI": "CO", "SOURCE_DAT": "PIPE", "SOURCE_FEA": "CO0037311001", "FEATUREDET": "http:\/\/www.epa-echo.gov\/cgi-bin\/get1cReport.cgi?tool=echoamp;IDNumber=CO0037311", "MEASURE": 0.980700, "OFFSET": 0.000000, "EVENTTYPE": "PCS", "GEOGSTATE": "CO", "CYCLE_YEAR": "", "START_DATE": "2012\/05\/30", "END_DATE": "1904\/02\/29", "WBD_HUC12": "140100030305", "WBD_HUC12_": 1.000000, "NAVIGABLE": "Y", "VERTICES": 1.000000, "AREA": 0.000000, "LEN": 0.000000 }, "geometry": { "type": "MultiPoint", "coordinates": [ [ -106.626652, 39.654352 ] ] } }
,
{ "type": "Feature", "id": 60, "properties": { "COMID": 10192783, "PERMANENT_": "{C158CA65-C5DF-4EAF-E043-0100007F1B58}", "EVENTDATE": "2012\/05\/31", "REACHCODE": "14010003000157", "REACHSMDAT": "1990\/01\/01", "REACHRESOL": 3, "FEATURECOM": 0.000000, "FEATURE_PE": "1320870", "FEATURECLA": 3.000000, "SOURCE_ORI": "CO", "SOURCE_DAT": "PIPE", "SOURCE_FEA": "COG073737G002", "FEATUREDET": "http:\/\/www.epa-echo.gov\/cgi-bin\/get1cReport.cgi?tool=echoamp;IDNumber=COG073737", "MEASURE": 71.011600, "OFFSET": 0.000000, "EVENTTYPE": "PCS", "GEOGSTATE": "CO", "CYCLE_YEAR": "", "START_DATE": "2012\/05\/30", "END_DATE": "1904\/02\/29", "WBD_HUC12": "140100030206", "WBD_HUC12_": 1.000000, "NAVIGABLE": "Y", "VERTICES": 1.000000, "AREA": 0.000000, "LEN": 0.000000 }, "geometry": { "type": "MultiPoint", "coordinates": [ [ -106.323759, 39.441447 ] ] } }

]
}
